{"data":[{"id":70395717,"urn_id":"bc:match:30142329","start_time":"2026-06-30T01:00:00Z","end_date":"0001-01-01T00:00:00Z","status":1,"type":"match","stage":"Half 1","competitors":{"home":{"urn_id":"bc:competitor:807","name":"Netherlands","logo":"https://stats-api.feedconstruct.com/images/e/b/0/807.png"},"away":{"urn_id":"bc:competitor:3432","name":"Morocco","logo":"https://stats-api.feedconstruct.com/images/e/b/1/3432.png"}},"tournament":{"id":7088,"urn_id":"bc:tournament:2969","name":"World Cup","priority":120,"sport":{"id":304,"urn_id":"bc:sport:1","name":"Football","key":"soccer","type":"regular","priority":100,"main_market_id":307,"main_market_outcomes_count":3,"secondary_market_id":206,"secondary_market_outcomes_count":2,"provider":"betconstruct","priorities":{"AE":100,"AL":100,"AM":100,"AR":100,"AT":100,"AU":160,"AZ":100,"BA":100,"BD":110,"BE":100,"BG":100,"BR":100,"BY":100,"CA":130,"CH":100,"CI":100,"CL":100,"CM":100,"CN":100,"CO":100,"CY":100,"CZ":100,"DE":100,"DK":100,"DZ":100,"EE":110,"EG":100,"ES":100,"FI":110,"FR":100,"GB":100,"GE":100,"GH":100,"GR":100,"HK":110,"HR":100,"HU":100,"ID":100,"IE":100,"IN":110,"IR":100,"IS":100,"IT":100,"JP":110,"KE":100,"KR":100,"KZ":100,"LT":120,"LU":100,"LV":110,"MA":100,"MC":100,"ME":100,"MK":100,"MM":110,"MT":100,"MX":100,"MY":100,"NG":100,"NL":100,"NO":100,"NZ":140,"PA":110,"PE":100,"PH":110,"PK":100,"PL":100,"PT":100,"RO":100,"RS":100,"RU":100,"SA":100,"SE":100,"SG":100,"SI":100,"SK":100,"SR":100,"TH":100,"TN":100,"TR":100,"TW":110,"UA":100,"US":140,"UY":100,"VN":100,"ZA":100}},"category":{"id":786,"urn_id":"bc:category:1:sport:1","name":"World","country_code":"","sport_id":304,"sport_urn_id":"bc:sport:1","sport_key":"soccer","sport_name":"Football","sport_type":"regular","priority":110,"slug":"world","provider":"betconstruct","priorities":{"AE":120,"AL":110,"AM":110,"AR":120,"AT":110,"AU":340,"AZ":110,"BA":110,"BD":200,"BE":110,"BG":110,"BR":110,"BY":110,"CA":270,"CH":110,"CI":110,"CL":120,"CM":110,"CN":140,"CO":120,"CY":110,"CZ":110,"DE":110,"DK":110,"DZ":110,"EE":200,"EG":110,"ES":110,"FI":200,"FR":110,"GB":110,"GE":110,"GH":110,"GR":110,"HK":220,"HR":110,"HU":110,"ID":110,"IE":110,"IN":200,"IR":120,"IS":110,"IT":110,"JP":170,"KE":110,"KR":120,"KZ":110,"LT":250,"LU":120,"LV":210,"MA":110,"MC":110,"ME":110,"MK":110,"MM":200,"MT":110,"MX":120,"MY":120,"NG":110,"NL":110,"NO":110,"NZ":270,"PA":180,"PE":120,"PH":220,"PK":120,"PL":110,"PT":110,"RO":110,"RS":110,"RU":110,"SA":120,"SE":110,"SG":120,"SI":110,"SK":110,"SR":110,"TH":120,"TN":110,"TR":110,"TW":190,"UA":110,"US":370,"UY":120,"VN":120,"ZA":110}},"slug":"world-cup","provider":"betconstruct","priorities":{"AE":160,"AL":120,"AM":120,"AR":150,"AT":110,"AU":510,"AZ":120,"BA":120,"BD":240,"BE":120,"BG":110,"BR":570,"BY":110,"CA":360,"CH":110,"CI":110,"CL":140,"CM":110,"CN":190,"CO":150,"CY":120,"CZ":120,"DE":120,"DK":110,"DZ":110,"EE":250,"EG":110,"ES":120,"FI":260,"FR":120,"GB":120,"GE":120,"GH":110,"GR":120,"HK":300,"HR":120,"HU":120,"ID":110,"IE":110,"IN":320,"IR":160,"IS":120,"IT":120,"JP":230,"KE":110,"KR":160,"KZ":120,"LT":600,"LU":140,"LV":260,"MA":110,"MC":120,"ME":120,"MK":120,"MM":320,"MT":120,"MX":160,"MY":160,"NG":110,"NL":120,"NO":110,"NZ":380,"PA":220,"PE":150,"PH":320,"PK":160,"PL":110,"PT":120,"RO":120,"RS":120,"RU":120,"SA":160,"SE":110,"SG":160,"SI":120,"SK":120,"SR":120,"TH":160,"TN":120,"TR":120,"TW":230,"UA":120,"US":510,"UY":140,"VN":150,"ZA":110}},"statistics":{"clock":{"match_time":"22:38","stoppage_time":null,"stoppage_time_announced":"0:38","remaining_time":null,"remaining_time_in_period":null,"stopped":null,"clock_updated_at":"2026-06-30T01:21:38.31998006Z"},"total_score":{"home":0,"away":0},"period_score":[{"home":0,"away":0,"period_key":"match_status.1000001","period_name":"Half 1","number":1,"type":"regular"}],"game_score":null,"max_period_number":null,"current_server":null},"stadium":"","city":"","slug":"netherlands-morocco","available_markets":111,"top_markets":10,"main_market":{"id":307,"market_external_id":5498,"match_urn_id":"bc:match:30142329","name":"Match Result","specifier":"bc_id=2308230146","status":1,"outcomes":[{"id":2889,"outcome_external_id":"bc:outcome:5452","active":true,"name":"Netherlands","odds":2550},{"id":2890,"outcome_external_id":"bc:outcome:5453","active":true,"name":"Draw","odds":2750},{"id":2891,"outcome_external_id":"bc:outcome:6524","active":true,"name":"Morocco","odds":3250}],"priority":1,"most_balanced":true,"market_groups":["all","top"],"custom_bet_groups":[],"provider":"betconstruct"},"secondary_market":{"id":206,"market_external_id":5500,"match_urn_id":"bc:match:30142329","name":"Total Goals","specifier":"bc_id=2308355272|hcp=2","status":1,"outcomes":[{"id":2418,"outcome_external_id":"bc:outcome:5448","active":true,"name":"Over 2","odds":2030},{"id":2419,"outcome_external_id":"bc:outcome:5449","active":true,"name":"Under 2","odds":1760}],"priority":5500,"most_balanced":true,"market_groups":["all","total","top"],"custom_bet_groups":[],"provider":"betconstruct"},"has_video":false,"is_provider_stats_available":true,"provider":"betconstruct"},{"id":70648703,"urn_id":"bc:match:30148654","start_time":"2026-06-30T17:00:00Z","end_date":"0001-01-01T00:00:00Z","status":0,"type":"match","stage":null,"competitors":{"home":{"urn_id":"bc:competitor:3430","name":"Cote d'Ivoire","logo":"https://stats-api.feedconstruct.com/images/e/b/1/3430.png"},"away":{"urn_id":"bc:competitor:246","name":"Norway","logo":"https://stats-api.feedconstruct.com/images/e/b/0/246.png"}},"tournament":{"id":7088,"urn_id":"bc:tournament:2969","name":"World Cup","priority":120,"sport":{"id":304,"urn_id":"bc:sport:1","name":"Football","key":"soccer","type":"regular","priority":100,"main_market_id":307,"main_market_outcomes_count":3,"secondary_market_id":206,"secondary_market_outcomes_count":2,"provider":"betconstruct","priorities":{"AE":100,"AL":100,"AM":100,"AR":100,"AT":100,"AU":160,"AZ":100,"BA":100,"BD":110,"BE":100,"BG":100,"BR":100,"BY":100,"CA":130,"CH":100,"CI":100,"CL":100,"CM":100,"CN":100,"CO":100,"CY":100,"CZ":100,"DE":100,"DK":100,"DZ":100,"EE":110,"EG":100,"ES":100,"FI":110,"FR":100,"GB":100,"GE":100,"GH":100,"GR":100,"HK":110,"HR":100,"HU":100,"ID":100,"IE":100,"IN":110,"IR":100,"IS":100,"IT":100,"JP":110,"KE":100,"KR":100,"KZ":100,"LT":120,"LU":100,"LV":110,"MA":100,"MC":100,"ME":100,"MK":100,"MM":110,"MT":100,"MX":100,"MY":100,"NG":100,"NL":100,"NO":100,"NZ":140,"PA":110,"PE":100,"PH":110,"PK":100,"PL":100,"PT":100,"RO":100,"RS":100,"RU":100,"SA":100,"SE":100,"SG":100,"SI":100,"SK":100,"SR":100,"TH":100,"TN":100,"TR":100,"TW":110,"UA":100,"US":140,"UY":100,"VN":100,"ZA":100}},"category":{"id":786,"urn_id":"bc:category:1:sport:1","name":"World","country_code":"","sport_id":304,"sport_urn_id":"bc:sport:1","sport_key":"soccer","sport_name":"Football","sport_type":"regular","priority":110,"slug":"world","provider":"betconstruct","priorities":{"AE":120,"AL":110,"AM":110,"AR":120,"AT":110,"AU":340,"AZ":110,"BA":110,"BD":200,"BE":110,"BG":110,"BR":110,"BY":110,"CA":270,"CH":110,"CI":110,"CL":120,"CM":110,"CN":140,"CO":120,"CY":110,"CZ":110,"DE":110,"DK":110,"DZ":110,"EE":200,"EG":110,"ES":110,"FI":200,"FR":110,"GB":110,"GE":110,"GH":110,"GR":110,"HK":220,"HR":110,"HU":110,"ID":110,"IE":110,"IN":200,"IR":120,"IS":110,"IT":110,"JP":170,"KE":110,"KR":120,"KZ":110,"LT":250,"LU":120,"LV":210,"MA":110,"MC":110,"ME":110,"MK":110,"MM":200,"MT":110,"MX":120,"MY":120,"NG":110,"NL":110,"NO":110,"NZ":270,"PA":180,"PE":120,"PH":220,"PK":120,"PL":110,"PT":110,"RO":110,"RS":110,"RU":110,"SA":120,"SE":110,"SG":120,"SI":110,"SK":110,"SR":110,"TH":120,"TN":110,"TR":110,"TW":190,"UA":110,"US":370,"UY":120,"VN":120,"ZA":110}},"slug":"world-cup","provider":"betconstruct","priorities":{"AE":160,"AL":120,"AM":120,"AR":150,"AT":110,"AU":510,"AZ":120,"BA":120,"BD":240,"BE":120,"BG":110,"BR":570,"BY":110,"CA":360,"CH":110,"CI":110,"CL":140,"CM":110,"CN":190,"CO":150,"CY":120,"CZ":120,"DE":120,"DK":110,"DZ":110,"EE":250,"EG":110,"ES":120,"FI":260,"FR":120,"GB":120,"GE":120,"GH":110,"GR":120,"HK":300,"HR":120,"HU":120,"ID":110,"IE":110,"IN":320,"IR":160,"IS":120,"IT":120,"JP":230,"KE":110,"KR":160,"KZ":120,"LT":600,"LU":140,"LV":260,"MA":110,"MC":120,"ME":120,"MK":120,"MM":320,"MT":120,"MX":160,"MY":160,"NG":110,"NL":120,"NO":110,"NZ":380,"PA":220,"PE":150,"PH":320,"PK":160,"PL":110,"PT":120,"RO":120,"RS":120,"RU":120,"SA":160,"SE":110,"SG":160,"SI":120,"SK":120,"SR":120,"TH":160,"TN":120,"TR":120,"TW":230,"UA":120,"US":510,"UY":140,"VN":150,"ZA":110}},"statistics":{"clock":null,"total_score":null,"period_score":null,"game_score":null,"max_period_number":null,"current_server":null},"stadium":"","city":"","slug":"cote-divoire-norway","available_markets":882,"top_markets":10,"main_market":{"id":307,"market_external_id":5498,"match_urn_id":"bc:match:30148654","name":"Match Result","specifier":"bc_id=2309200594","status":1,"outcomes":[{"id":2889,"outcome_external_id":"bc:outcome:5452","active":true,"name":"Cote d'Ivoire","odds":3520},{"id":2890,"outcome_external_id":"bc:outcome:5453","active":true,"name":"Draw","odds":3410},{"id":2891,"outcome_external_id":"bc:outcome:6524","active":true,"name":"Norway","odds":2110}],"priority":1,"most_balanced":true,"market_groups":["all","top"],"custom_bet_groups":[],"provider":"betconstruct"},"secondary_market":{"id":206,"market_external_id":5500,"match_urn_id":"bc:match:30148654","name":"Total Goals","specifier":"bc_id=2309200607|hcp=2.5","status":1,"outcomes":[{"id":2418,"outcome_external_id":"bc:outcome:5448","active":true,"name":"Over 2.5","odds":1930},{"id":2419,"outcome_external_id":"bc:outcome:5449","active":true,"name":"Under 2.5","odds":1880}],"priority":5500,"most_balanced":true,"market_groups":["all","total","top"],"custom_bet_groups":[],"provider":"betconstruct"},"has_video":false,"is_provider_stats_available":true,"provider":"betconstruct"},{"id":70745650,"urn_id":"bc:match:30151728","start_time":"2026-06-30T20:59:00Z","end_date":"0001-01-01T00:00:00Z","status":0,"type":"match","stage":null,"competitors":{"home":{"urn_id":"bc:competitor:252","name":"France","logo":"https://stats-api.feedconstruct.com/images/e/b/0/252.png"},"away":{"urn_id":"bc:competitor:247","name":"Sweden","logo":"https://stats-api.feedconstruct.com/images/e/b/0/247.png"}},"tournament":{"id":7088,"urn_id":"bc:tournament:2969","name":"World Cup","priority":120,"sport":{"id":304,"urn_id":"bc:sport:1","name":"Football","key":"soccer","type":"regular","priority":100,"main_market_id":307,"main_market_outcomes_count":3,"secondary_market_id":206,"secondary_market_outcomes_count":2,"provider":"betconstruct","priorities":{"AE":100,"AL":100,"AM":100,"AR":100,"AT":100,"AU":160,"AZ":100,"BA":100,"BD":110,"BE":100,"BG":100,"BR":100,"BY":100,"CA":130,"CH":100,"CI":100,"CL":100,"CM":100,"CN":100,"CO":100,"CY":100,"CZ":100,"DE":100,"DK":100,"DZ":100,"EE":110,"EG":100,"ES":100,"FI":110,"FR":100,"GB":100,"GE":100,"GH":100,"GR":100,"HK":110,"HR":100,"HU":100,"ID":100,"IE":100,"IN":110,"IR":100,"IS":100,"IT":100,"JP":110,"KE":100,"KR":100,"KZ":100,"LT":120,"LU":100,"LV":110,"MA":100,"MC":100,"ME":100,"MK":100,"MM":110,"MT":100,"MX":100,"MY":100,"NG":100,"NL":100,"NO":100,"NZ":140,"PA":110,"PE":100,"PH":110,"PK":100,"PL":100,"PT":100,"RO":100,"RS":100,"RU":100,"SA":100,"SE":100,"SG":100,"SI":100,"SK":100,"SR":100,"TH":100,"TN":100,"TR":100,"TW":110,"UA":100,"US":140,"UY":100,"VN":100,"ZA":100}},"category":{"id":786,"urn_id":"bc:category:1:sport:1","name":"World","country_code":"","sport_id":304,"sport_urn_id":"bc:sport:1","sport_key":"soccer","sport_name":"Football","sport_type":"regular","priority":110,"slug":"world","provider":"betconstruct","priorities":{"AE":120,"AL":110,"AM":110,"AR":120,"AT":110,"AU":340,"AZ":110,"BA":110,"BD":200,"BE":110,"BG":110,"BR":110,"BY":110,"CA":270,"CH":110,"CI":110,"CL":120,"CM":110,"CN":140,"CO":120,"CY":110,"CZ":110,"DE":110,"DK":110,"DZ":110,"EE":200,"EG":110,"ES":110,"FI":200,"FR":110,"GB":110,"GE":110,"GH":110,"GR":110,"HK":220,"HR":110,"HU":110,"ID":110,"IE":110,"IN":200,"IR":120,"IS":110,"IT":110,"JP":170,"KE":110,"KR":120,"KZ":110,"LT":250,"LU":120,"LV":210,"MA":110,"MC":110,"ME":110,"MK":110,"MM":200,"MT":110,"MX":120,"MY":120,"NG":110,"NL":110,"NO":110,"NZ":270,"PA":180,"PE":120,"PH":220,"PK":120,"PL":110,"PT":110,"RO":110,"RS":110,"RU":110,"SA":120,"SE":110,"SG":120,"SI":110,"SK":110,"SR":110,"TH":120,"TN":110,"TR":110,"TW":190,"UA":110,"US":370,"UY":120,"VN":120,"ZA":110}},"slug":"world-cup","provider":"betconstruct","priorities":{"AE":160,"AL":120,"AM":120,"AR":150,"AT":110,"AU":510,"AZ":120,"BA":120,"BD":240,"BE":120,"BG":110,"BR":570,"BY":110,"CA":360,"CH":110,"CI":110,"CL":140,"CM":110,"CN":190,"CO":150,"CY":120,"CZ":120,"DE":120,"DK":110,"DZ":110,"EE":250,"EG":110,"ES":120,"FI":260,"FR":120,"GB":120,"GE":120,"GH":110,"GR":120,"HK":300,"HR":120,"HU":120,"ID":110,"IE":110,"IN":320,"IR":160,"IS":120,"IT":120,"JP":230,"KE":110,"KR":160,"KZ":120,"LT":600,"LU":140,"LV":260,"MA":110,"MC":120,"ME":120,"MK":120,"MM":320,"MT":120,"MX":160,"MY":160,"NG":110,"NL":120,"NO":110,"NZ":380,"PA":220,"PE":150,"PH":320,"PK":160,"PL":110,"PT":120,"RO":120,"RS":120,"RU":120,"SA":160,"SE":110,"SG":160,"SI":120,"SK":120,"SR":120,"TH":160,"TN":120,"TR":120,"TW":230,"UA":120,"US":510,"UY":140,"VN":150,"ZA":110}},"statistics":{"clock":null,"total_score":null,"period_score":null,"game_score":null,"max_period_number":null,"current_server":null},"stadium":"","city":"","slug":"france-sweden","available_markets":909,"top_markets":10,"main_market":{"id":307,"market_external_id":5498,"match_urn_id":"bc:match:30151728","name":"Match Result","specifier":"bc_id=2309415998","status":1,"outcomes":[{"id":2889,"outcome_external_id":"bc:outcome:5452","active":true,"name":"France","odds":1290},{"id":2890,"outcome_external_id":"bc:outcome:5453","active":true,"name":"Draw","odds":5900},{"id":2891,"outcome_external_id":"bc:outcome:6524","active":true,"name":"Sweden","odds":9700}],"priority":1,"most_balanced":true,"market_groups":["all","top"],"custom_bet_groups":[],"provider":"betconstruct"},"secondary_market":{"id":206,"market_external_id":5500,"match_urn_id":"bc:match:30151728","name":"Total Goals","specifier":"bc_id=2309474209|hcp=3.5","status":1,"outcomes":[{"id":2418,"outcome_external_id":"bc:outcome:5448","active":true,"name":"Over 3.5","odds":2100},{"id":2419,"outcome_external_id":"bc:outcome:5449","active":true,"name":"Under 3.5","odds":1720}],"priority":5500,"most_balanced":true,"market_groups":["all","total","top"],"custom_bet_groups":[],"provider":"betconstruct"},"has_video":false,"is_provider_stats_available":true,"provider":"betconstruct"},{"id":71068823,"urn_id":"bc:match:30159116","start_time":"2026-07-01T16:00:00Z","end_date":"0001-01-01T00:00:00Z","status":0,"type":"match","stage":null,"competitors":{"home":{"urn_id":"bc:competitor:239","name":"England","logo":"https://stats-api.feedconstruct.com/images/e/b/0/239.png"},"away":{"urn_id":"bc:competitor:6173","name":"DR Congo","logo":"https://stats-api.feedconstruct.com/images/e/b/3/6173.png"}},"tournament":{"id":7088,"urn_id":"bc:tournament:2969","name":"World Cup","priority":120,"sport":{"id":304,"urn_id":"bc:sport:1","name":"Football","key":"soccer","type":"regular","priority":100,"main_market_id":307,"main_market_outcomes_count":3,"secondary_market_id":206,"secondary_market_outcomes_count":2,"provider":"betconstruct","priorities":{"AE":100,"AL":100,"AM":100,"AR":100,"AT":100,"AU":160,"AZ":100,"BA":100,"BD":110,"BE":100,"BG":100,"BR":100,"BY":100,"CA":130,"CH":100,"CI":100,"CL":100,"CM":100,"CN":100,"CO":100,"CY":100,"CZ":100,"DE":100,"DK":100,"DZ":100,"EE":110,"EG":100,"ES":100,"FI":110,"FR":100,"GB":100,"GE":100,"GH":100,"GR":100,"HK":110,"HR":100,"HU":100,"ID":100,"IE":100,"IN":110,"IR":100,"IS":100,"IT":100,"JP":110,"KE":100,"KR":100,"KZ":100,"LT":120,"LU":100,"LV":110,"MA":100,"MC":100,"ME":100,"MK":100,"MM":110,"MT":100,"MX":100,"MY":100,"NG":100,"NL":100,"NO":100,"NZ":140,"PA":110,"PE":100,"PH":110,"PK":100,"PL":100,"PT":100,"RO":100,"RS":100,"RU":100,"SA":100,"SE":100,"SG":100,"SI":100,"SK":100,"SR":100,"TH":100,"TN":100,"TR":100,"TW":110,"UA":100,"US":140,"UY":100,"VN":100,"ZA":100}},"category":{"id":786,"urn_id":"bc:category:1:sport:1","name":"World","country_code":"","sport_id":304,"sport_urn_id":"bc:sport:1","sport_key":"soccer","sport_name":"Football","sport_type":"regular","priority":110,"slug":"world","provider":"betconstruct","priorities":{"AE":120,"AL":110,"AM":110,"AR":120,"AT":110,"AU":340,"AZ":110,"BA":110,"BD":200,"BE":110,"BG":110,"BR":110,"BY":110,"CA":270,"CH":110,"CI":110,"CL":120,"CM":110,"CN":140,"CO":120,"CY":110,"CZ":110,"DE":110,"DK":110,"DZ":110,"EE":200,"EG":110,"ES":110,"FI":200,"FR":110,"GB":110,"GE":110,"GH":110,"GR":110,"HK":220,"HR":110,"HU":110,"ID":110,"IE":110,"IN":200,"IR":120,"IS":110,"IT":110,"JP":170,"KE":110,"KR":120,"KZ":110,"LT":250,"LU":120,"LV":210,"MA":110,"MC":110,"ME":110,"MK":110,"MM":200,"MT":110,"MX":120,"MY":120,"NG":110,"NL":110,"NO":110,"NZ":270,"PA":180,"PE":120,"PH":220,"PK":120,"PL":110,"PT":110,"RO":110,"RS":110,"RU":110,"SA":120,"SE":110,"SG":120,"SI":110,"SK":110,"SR":110,"TH":120,"TN":110,"TR":110,"TW":190,"UA":110,"US":370,"UY":120,"VN":120,"ZA":110}},"slug":"world-cup","provider":"betconstruct","priorities":{"AE":160,"AL":120,"AM":120,"AR":150,"AT":110,"AU":510,"AZ":120,"BA":120,"BD":240,"BE":120,"BG":110,"BR":570,"BY":110,"CA":360,"CH":110,"CI":110,"CL":140,"CM":110,"CN":190,"CO":150,"CY":120,"CZ":120,"DE":120,"DK":110,"DZ":110,"EE":250,"EG":110,"ES":120,"FI":260,"FR":120,"GB":120,"GE":120,"GH":110,"GR":120,"HK":300,"HR":120,"HU":120,"ID":110,"IE":110,"IN":320,"IR":160,"IS":120,"IT":120,"JP":230,"KE":110,"KR":160,"KZ":120,"LT":600,"LU":140,"LV":260,"MA":110,"MC":120,"ME":120,"MK":120,"MM":320,"MT":120,"MX":160,"MY":160,"NG":110,"NL":120,"NO":110,"NZ":380,"PA":220,"PE":150,"PH":320,"PK":160,"PL":110,"PT":120,"RO":120,"RS":120,"RU":120,"SA":160,"SE":110,"SG":160,"SI":120,"SK":120,"SR":120,"TH":160,"TN":120,"TR":120,"TW":230,"UA":120,"US":510,"UY":140,"VN":150,"ZA":110}},"statistics":{"clock":null,"total_score":null,"period_score":null,"game_score":null,"max_period_number":null,"current_server":null},"stadium":"","city":"","slug":"england-dr-congo","available_markets":858,"top_markets":10,"main_market":{"id":307,"market_external_id":5498,"match_urn_id":"bc:match:30159116","name":"Match Result","specifier":"bc_id=2310514495","status":1,"outcomes":[{"id":2889,"outcome_external_id":"bc:outcome:5452","active":true,"name":"England","odds":1280},{"id":2890,"outcome_external_id":"bc:outcome:5453","active":true,"name":"Draw","odds":5400},{"id":2891,"outcome_external_id":"bc:outcome:6524","active":true,"name":"DR Congo","odds":12000}],"priority":1,"most_balanced":true,"market_groups":["all","top"],"custom_bet_groups":[],"provider":"betconstruct"},"secondary_market":{"id":206,"market_external_id":5500,"match_urn_id":"bc:match:30159116","name":"Total Goals","specifier":"bc_id=2310538418|hcp=2.5","status":1,"outcomes":[{"id":2418,"outcome_external_id":"bc:outcome:5448","active":true,"name":"Over 2.5","odds":1950},{"id":2419,"outcome_external_id":"bc:outcome:5449","active":true,"name":"Under 2.5","odds":1860}],"priority":5500,"most_balanced":true,"market_groups":["all","total","top"],"custom_bet_groups":[],"provider":"betconstruct"},"has_video":false,"is_provider_stats_available":true,"provider":"betconstruct"},{"id":71068776,"urn_id":"bc:match:30159117","start_time":"2026-07-01T20:00:00Z","end_date":"0001-01-01T00:00:00Z","status":0,"type":"match","stage":null,"competitors":{"home":{"urn_id":"bc:competitor:782","name":"Belgium","logo":"https://stats-api.feedconstruct.com/images/e/b/0/782.png"},"away":{"urn_id":"bc:competitor:3638","name":"Senegal","logo":"https://stats-api.feedconstruct.com/images/e/b/1/3638.png"}},"tournament":{"id":7088,"urn_id":"bc:tournament:2969","name":"World Cup","priority":120,"sport":{"id":304,"urn_id":"bc:sport:1","name":"Football","key":"soccer","type":"regular","priority":100,"main_market_id":307,"main_market_outcomes_count":3,"secondary_market_id":206,"secondary_market_outcomes_count":2,"provider":"betconstruct","priorities":{"AE":100,"AL":100,"AM":100,"AR":100,"AT":100,"AU":160,"AZ":100,"BA":100,"BD":110,"BE":100,"BG":100,"BR":100,"BY":100,"CA":130,"CH":100,"CI":100,"CL":100,"CM":100,"CN":100,"CO":100,"CY":100,"CZ":100,"DE":100,"DK":100,"DZ":100,"EE":110,"EG":100,"ES":100,"FI":110,"FR":100,"GB":100,"GE":100,"GH":100,"GR":100,"HK":110,"HR":100,"HU":100,"ID":100,"IE":100,"IN":110,"IR":100,"IS":100,"IT":100,"JP":110,"KE":100,"KR":100,"KZ":100,"LT":120,"LU":100,"LV":110,"MA":100,"MC":100,"ME":100,"MK":100,"MM":110,"MT":100,"MX":100,"MY":100,"NG":100,"NL":100,"NO":100,"NZ":140,"PA":110,"PE":100,"PH":110,"PK":100,"PL":100,"PT":100,"RO":100,"RS":100,"RU":100,"SA":100,"SE":100,"SG":100,"SI":100,"SK":100,"SR":100,"TH":100,"TN":100,"TR":100,"TW":110,"UA":100,"US":140,"UY":100,"VN":100,"ZA":100}},"category":{"id":786,"urn_id":"bc:category:1:sport:1","name":"World","country_code":"","sport_id":304,"sport_urn_id":"bc:sport:1","sport_key":"soccer","sport_name":"Football","sport_type":"regular","priority":110,"slug":"world","provider":"betconstruct","priorities":{"AE":120,"AL":110,"AM":110,"AR":120,"AT":110,"AU":340,"AZ":110,"BA":110,"BD":200,"BE":110,"BG":110,"BR":110,"BY":110,"CA":270,"CH":110,"CI":110,"CL":120,"CM":110,"CN":140,"CO":120,"CY":110,"CZ":110,"DE":110,"DK":110,"DZ":110,"EE":200,"EG":110,"ES":110,"FI":200,"FR":110,"GB":110,"GE":110,"GH":110,"GR":110,"HK":220,"HR":110,"HU":110,"ID":110,"IE":110,"IN":200,"IR":120,"IS":110,"IT":110,"JP":170,"KE":110,"KR":120,"KZ":110,"LT":250,"LU":120,"LV":210,"MA":110,"MC":110,"ME":110,"MK":110,"MM":200,"MT":110,"MX":120,"MY":120,"NG":110,"NL":110,"NO":110,"NZ":270,"PA":180,"PE":120,"PH":220,"PK":120,"PL":110,"PT":110,"RO":110,"RS":110,"RU":110,"SA":120,"SE":110,"SG":120,"SI":110,"SK":110,"SR":110,"TH":120,"TN":110,"TR":110,"TW":190,"UA":110,"US":370,"UY":120,"VN":120,"ZA":110}},"slug":"world-cup","provider":"betconstruct","priorities":{"AE":160,"AL":120,"AM":120,"AR":150,"AT":110,"AU":510,"AZ":120,"BA":120,"BD":240,"BE":120,"BG":110,"BR":570,"BY":110,"CA":360,"CH":110,"CI":110,"CL":140,"CM":110,"CN":190,"CO":150,"CY":120,"CZ":120,"DE":120,"DK":110,"DZ":110,"EE":250,"EG":110,"ES":120,"FI":260,"FR":120,"GB":120,"GE":120,"GH":110,"GR":120,"HK":300,"HR":120,"HU":120,"ID":110,"IE":110,"IN":320,"IR":160,"IS":120,"IT":120,"JP":230,"KE":110,"KR":160,"KZ":120,"LT":600,"LU":140,"LV":260,"MA":110,"MC":120,"ME":120,"MK":120,"MM":320,"MT":120,"MX":160,"MY":160,"NG":110,"NL":120,"NO":110,"NZ":380,"PA":220,"PE":150,"PH":320,"PK":160,"PL":110,"PT":120,"RO":120,"RS":120,"RU":120,"SA":160,"SE":110,"SG":160,"SI":120,"SK":120,"SR":120,"TH":160,"TN":120,"TR":120,"TW":230,"UA":120,"US":510,"UY":140,"VN":150,"ZA":110}},"statistics":{"clock":null,"total_score":null,"period_score":null,"game_score":null,"max_period_number":null,"current_server":null},"stadium":"","city":"","slug":"belgium-senegal","available_markets":857,"top_markets":10,"main_market":{"id":307,"market_external_id":5498,"match_urn_id":"bc:match:30159117","name":"Match Result","specifier":"bc_id=2310531493","status":1,"outcomes":[{"id":2889,"outcome_external_id":"bc:outcome:5452","active":true,"name":"Belgium","odds":2210},{"id":2890,"outcome_external_id":"bc:outcome:5453","active":true,"name":"Draw","odds":3230},{"id":2891,"outcome_external_id":"bc:outcome:6524","active":true,"name":"Senegal","odds":3450}],"priority":1,"most_balanced":true,"market_groups":["all","top"],"custom_bet_groups":[],"provider":"betconstruct"},"secondary_market":{"id":206,"market_external_id":5500,"match_urn_id":"bc:match:30159117","name":"Total Goals","specifier":"bc_id=2310536538|hcp=2.5","status":1,"outcomes":[{"id":2418,"outcome_external_id":"bc:outcome:5448","active":true,"name":"Over 2.5","odds":2130},{"id":2419,"outcome_external_id":"bc:outcome:5449","active":true,"name":"Under 2.5","odds":1700}],"priority":5500,"most_balanced":true,"market_groups":["all","total","top"],"custom_bet_groups":[],"provider":"betconstruct"},"has_video":false,"is_provider_stats_available":true,"provider":"betconstruct"}],"pagination":{"total":891,"page":1,"limit":5,"last_page":179}}
